root://eosatlas//eos/atlas/atlascerngroupdisk/phys-top/topreco/mc15_13TeV/mc15_13TeV.410501.PowhegPythia8EvtGen_A14_ttbar_hdamp258p75_nonallhad.merge.DAOD_TOPQ1.e5458_s2726_r7772_r7676_p2877.09970904._000001.pool.root.1
root://eosatlas//eos/atlas/atlascerngroupdisk/phys-top/topreco/mc15_13TeV/mc15_13TeV.410502.PowhegPythia8EvtGen_A14_ttbar_hdamp258p75_allhad.merge.DAOD_TOPQ1.e5475_s2726_r7772_r7676_p2877.10083471._000016.pool.root.1
root://eosatlas//eos/atlas/atlascerngroupdisk/phys-top/topreco/mc15_13TeV/mc15_13TeV.410503.PowhegPythia8EvtGen_A14_ttbar_hdamp258p75_dil.merge.DAOD_TOPQ1.e5475_s2726_r7772_r7676_p2877.09970914._000103.pool.root.1
